{
  "report_type": "SECURITY",
  "title": "Synopsys SAST Report",
  "details": "Manage security, quality, and license compliance risk that comes from the use of open source and third-party code in applications and containers.",
  "result": "FAILED",
  "reporter": "Coverity on Polaris",
  "link": "https://sipse.polaris.synopsys.com/projects/6b10dc5b-0b66-4061-97a5-3cccb4f64521/branches/c1ef9738-1d10-492d-8ee0-c6a79bf0406c",
  "logo_url": "https://www.cloudfoundry.org/wp-content/uploads/icon_synopsys@2x.png",
  "created_on": "2020-02-03T03:59:20Z",
  "updated_on": "2020-02-03T03:59:20Z"
}